…
Run .help --all for extended information
Run .help shortcuts for keyboard shortcuts
memory D analyse
         ;
memory D analyze;
memory D CALL duckdb_functions();
┌───────────────┬──────────────┬─────────────┬───┬───────────┬────────────┬────────────┐
│ database_name │ database_oid │ schema_name │ … │ examples  │ stability  │ categories │
│    varchar    │   varchar    │   varchar   │ … │ varchar[] │  varchar   │ varchar[]  │
├───────────────┼──────────────┼─────────────┼───┼───────────┼────────────┼────────────┤
│ system        │ 0            │ main        │ … │ []        │ NULL       │ []         │
│ system        │ 0            │ main        │ … │ []        │ NULL       │ []         │
│ system        │ 0            │ main        │ … │ []        │ NULL       │ []         │
│ system        │ 0            │ main        │ … │ []        │ NULL       │ []         │
│ system        │ 0            │ main        │ … │ []        │ NULL       │ []         │
│ system        │ 0            │ main        │ … │ []        │ NULL       │ []         │
│ system        │ 0            │ main        │ … │ []        │ NULL       │ []         │
│ system        │ 0            │ main        │ … │ []        │ NULL       │ []         │
│ system        │ 0            │ main        │ … │ []        │ NULL       │ []         │
│ system        │ 0            │ main        │ … │ []        │ NULL       │ []         │
│ system        │ 0            │ main        │ … │ []        │ NULL       │ []         │
│ system        │ 0            │ main        │ … │ []        │ NULL       │ []         │
│ system        │ 0            │ main        │ … │ []        │ NULL       │ []         │
│ system        │ 0            │ main        │ … │ []        │ NULL       │ []         │
│ system        │ 0            │ main        │ … │ []        │ NULL       │ []         │
│ system        │ 0            │ main        │ … │ []        │ NULL       │ []         │
│ system        │ 0            │ main        │ … │ []        │ NULL       │ []         │
│ system        │ 0            │ main        │ … │ []        │ NULL       │ []         │
│ system        │ 0            │ main        │ … │ []        │ NULL       │ []         │
│ system        │ 0            │ main        │ … │ []        │ NULL       │ []         │
│   ·           │ ·            │  ·          │ … │ ·         │  ·         │ ·          │
│   ·           │ ·            │  ·          │ … │ ·         │  ·         │ ·          │
│   ·           │ ·            │  ·          │ … │ ·         │  ·         │ ·          │
│ system        │ 0            │ pg_catalog  │ … │ []        │ NULL       │ []         │
│ system        │ 0            │ main        │ … │ []        │ NULL       │ []         │
│ system        │ 0            │ main        │ … │ []        │ NULL       │ []         │
│ system        │ 0            │ main        │ … │ []        │ NULL       │ []         │
│ system        │ 0            │ main        │ … │ []        │ NULL       │ []         │
│ system        │ 0            │ main        │ … │ []        │ CONSISTENT │ []         │
│ system        │ 0            │ main        │ … │ []        │ CONSISTENT │ []         │
│ system        │ 0            │ main        │ … │ []        │ CONSISTENT │ []         │
│ system        │ 0            │ main        │ … │ []        │ CONSISTENT │ []         │
│ system        │ 0            │ main        │ … │ []        │ CONSISTENT │ []         │
│ system        │ 0            │ main        │ … │ []        │ CONSISTENT │ []         │
│ system        │ 0            │ main        │ … │ []        │ CONSISTENT │ []         │
│ system        │ 0            │ main        │ … │ []        │ CONSISTENT │ []         │
│ system        │ 0            │ main        │ … │ []        │ CONSISTENT │ []         │
│ system        │ 0            │ main        │ … │ []        │ CONSISTENT │ []         │
│ system        │ 0            │ main        │ … │ []        │ CONSISTENT │ []         │
│ system        │ 0            │ main        │ … │ []        │ CONSISTENT │ []         │
│ system        │ 0            │ main        │ … │ []        │ CONSISTENT │ []         │
│ system        │ 0            │ main        │ … │ []        │ CONSISTENT │ []         │
│ system        │ 0            │ main        │ … │ []        │ CONSISTENT │ []         │
└───────────────┴──────────────┴─────────────┴───┴───────────┴────────────┴────────────┘
  2949 rows (40 shown)      use .last to show entire result       20 columns (6 shown)
…
